<?xml version="1.0" encoding="UTF-8"?>
<glyph name="h" format="1">
  <advance width="560"/>
  <unicode hex="0068"/>
  <outline>
    <contour>
      <point x="196" y="356" type="line"/>
      <point x="196" y="389" type="line" smooth="yes"/>
      <point x="196" y="442"/>
      <point x="195" y="510"/>
      <point x="155" y="510" type="curve" smooth="yes"/>
      <point x="129" y="510"/>
      <point x="125" y="472"/>
      <point x="125" y="437" type="curve" smooth="yes"/>
      <point x="125" y="423"/>
      <point x="126" y="410"/>
      <point x="126" y="400" type="curve" smooth="yes"/>
      <point x="126" y="331" type="line"/>
      <point x="99" y="348"/>
      <point x="67" y="370"/>
      <point x="45" y="370" type="curve" smooth="yes"/>
      <point x="27" y="370"/>
      <point x="23" y="338"/>
      <point x="23" y="328" type="curve" smooth="yes"/>
      <point x="25" y="277"/>
      <point x="99" y="273"/>
      <point x="141" y="266" type="curve"/>
      <point x="146" y="245" type="line" smooth="yes"/>
      <point x="168" y="159"/>
      <point x="188" y="79"/>
      <point x="229" y="-1" type="curve"/>
      <point x="238" y="-16"/>
      <point x="264" y="-35"/>
      <point x="281" y="-35" type="curve" smooth="yes"/>
      <point x="322" y="-35"/>
      <point x="326" y="26"/>
      <point x="326" y="50" type="curve" smooth="yes"/>
      <point x="326" y="96"/>
      <point x="312" y="141"/>
      <point x="273" y="167" type="curve" smooth="yes"/>
      <point x="225" y="198"/>
      <point x="218" y="233"/>
      <point x="218" y="274" type="curve"/>
      <point x="380" y="361" type="line"/>
      <point x="405" y="257"/>
      <point x="428" y="157"/>
      <point x="452" y="54" type="curve" smooth="yes"/>
      <point x="458" y="28" type="line" smooth="yes"/>
      <point x="465" y="-1"/>
      <point x="483" y="-48"/>
      <point x="509" y="-48" type="curve" smooth="yes"/>
      <point x="531" y="-48"/>
      <point x="545" y="-27"/>
      <point x="545" y="-12" type="curve" smooth="yes"/>
      <point x="545" y="-6"/>
      <point x="544" y="1"/>
      <point x="542" y="9" type="curve"/>
      <point x="491" y="160"/>
      <point x="458" y="312"/>
      <point x="434" y="463" type="curve" smooth="yes"/>
      <point x="428" y="497"/>
      <point x="412" y="530"/>
      <point x="380" y="537" type="curve"/>
      <point x="365" y="534"/>
      <point x="344" y="505"/>
      <point x="344" y="485" type="curve"/>
      <point x="333" y="403"/>
      <point x="278" y="373"/>
      <point x="196" y="356" type="curve"/>
    </contour>
  </outline>
  <lib>
    <dict>
      <key>com.schriftgestaltung.Glyphs.lastChange</key>
      <string>2019-03-20 22:35:49 +0000</string>
    </dict>
  </lib>
</glyph>
