<?xml version="1.0" encoding="UTF-8"?>
<glyph name="d" format="1">
  <advance width="441"/>
  <unicode hex="0064"/>
  <outline>
    <contour>
      <point x="410" y="311" type="curve" smooth="yes"/>
      <point x="410" y="463"/>
      <point x="245" y="555"/>
      <point x="105" y="555" type="curve" smooth="yes"/>
      <point x="87" y="555"/>
      <point x="18" y="555"/>
      <point x="18" y="528" type="curve" smooth="yes"/>
      <point x="18" y="509"/>
      <point x="42" y="503"/>
      <point x="55" y="492" type="curve"/>
      <point x="62" y="466"/>
      <point x="62" y="438"/>
      <point x="62" y="410" type="curve" smooth="yes"/>
      <point x="62" y="318"/>
      <point x="64" y="224"/>
      <point x="74" y="132" type="curve" smooth="yes"/>
      <point x="80" y="80"/>
      <point x="128" y="67"/>
      <point x="170" y="67" type="curve" smooth="yes"/>
      <point x="296" y="67"/>
      <point x="410" y="178"/>
    </contour>
    <contour>
      <point x="120" y="491" type="curve"/>
      <point x="202" y="481"/>
      <point x="324" y="418"/>
      <point x="324" y="317" type="curve" smooth="yes"/>
      <point x="324" y="248"/>
      <point x="272" y="178"/>
      <point x="208" y="143" type="curve" smooth="yes"/>
      <point x="189" y="132"/>
      <point x="166" y="130"/>
      <point x="145" y="125" type="curve"/>
      <point x="145" y="160"/>
      <point x="128" y="191"/>
      <point x="128" y="220" type="curve" smooth="yes"/>
      <point x="128" y="248"/>
      <point x="132" y="277"/>
      <point x="132" y="307" type="curve" smooth="yes"/>
      <point x="132" y="370"/>
      <point x="120" y="434"/>
    </contour>
  </outline>
  <lib>
    <dict>
      <key>com.schriftgestaltung.Glyphs.lastChange</key>
      <string>2019-03-20 21:42:08 +0000</string>
    </dict>
  </lib>
</glyph>
