<?xml version="1.0" encoding="UTF-8"?>
<glyph name="quotesingle" format="1">
  <advance width="129"/>
  <unicode hex="0027"/>
  <outline>
    <contour>
      <point x="64" y="634" type="curve" smooth="yes"/>
      <point x="25" y="634"/>
      <point x="17" y="591"/>
      <point x="17" y="557" type="curve" smooth="yes"/>
      <point x="17" y="460"/>
      <point x="41" y="390"/>
      <point x="74" y="390" type="curve" smooth="yes"/>
      <point x="112" y="390"/>
      <point x="106" y="447"/>
      <point x="107" y="476" type="curve" smooth="yes"/>
      <point x="108" y="496"/>
      <point x="110" y="516"/>
      <point x="110" y="537" type="curve" smooth="yes"/>
      <point x="110" y="563"/>
      <point x="103" y="634"/>
    </contour>
  </outline>
  <lib>
    <dict>
      <key>com.schriftgestaltung.Glyphs.lastChange</key>
      <string>2019-03-20 21:42:08 +0000</string>
    </dict>
  </lib>
</glyph>
