<?xml version="1.0" encoding="UTF-8"?>
<glyph name="bracketright" format="1">
  <advance width="218"/>
  <unicode hex="005D"/>
  <outline>
    <contour>
      <point x="167" y="688" type="line"/>
      <point x="149" y="688"/>
      <point x="128" y="689"/>
      <point x="108" y="689" type="curve" smooth="yes"/>
      <point x="72" y="689"/>
      <point x="40" y="685"/>
      <point x="40" y="660" type="curve" smooth="yes"/>
      <point x="40" y="632"/>
      <point x="73" y="630"/>
      <point x="95" y="630" type="curve" smooth="yes"/>
      <point x="139" y="630" type="line"/>
      <point x="134" y="549"/>
      <point x="135" y="460"/>
      <point x="132" y="380" type="curve" smooth="yes"/>
      <point x="127" y="237"/>
      <point x="126" y="86"/>
      <point x="126" y="-58" type="curve"/>
      <point x="100" y="-58"/>
      <point x="73" y="-57"/>
      <point x="47" y="-57" type="curve" smooth="yes"/>
      <point x="29" y="-57"/>
      <point x="8" y="-61"/>
      <point x="8" y="-84" type="curve" smooth="yes"/>
      <point x="8" y="-113"/>
      <point x="54" y="-118"/>
      <point x="93" y="-118" type="curve" smooth="yes"/>
      <point x="154" y="-118"/>
      <point x="184" y="-118"/>
      <point x="184" y="-82" type="curve" smooth="yes"/>
      <point x="184" y="-69"/>
      <point x="183" y="-57"/>
      <point x="183" y="-47" type="curve" smooth="yes"/>
      <point x="183" y="66"/>
      <point x="186" y="180"/>
      <point x="186" y="290" type="curve" smooth="yes"/>
      <point x="186" y="405"/>
      <point x="196" y="527"/>
      <point x="196" y="644" type="curve" smooth="yes"/>
      <point x="196" y="669"/>
      <point x="188" y="685"/>
      <point x="167" y="688" type="curve"/>
    </contour>
  </outline>
  <lib>
    <dict>
      <key>com.schriftgestaltung.Glyphs.lastChange</key>
      <string>2019-03-20 22:33:18 +0000</string>
    </dict>
  </lib>
</glyph>
