<?xml version="1.0" encoding="UTF-8"?>
<glyph name="u" format="1">
  <advance width="350"/>
  <unicode hex="0075"/>
  <outline>
    <contour>
      <point x="331" y="585" type="line"/>
      <point x="331" y="606"/>
      <point x="310" y="613"/>
      <point x="295" y="613" type="curve" smooth="yes"/>
      <point x="290" y="613"/>
      <point x="284" y="612"/>
      <point x="277" y="612" type="curve" smooth="yes"/>
      <point x="243" y="612"/>
      <point x="197" y="611"/>
      <point x="197" y="578" type="curve" smooth="yes"/>
      <point x="197" y="562"/>
      <point x="209" y="549"/>
      <point x="225" y="549" type="curve" smooth="yes"/>
      <point x="231" y="549" type="line"/>
      <point x="231" y="468"/>
      <point x="227" y="397"/>
      <point x="224" y="316" type="curve" smooth="yes"/>
      <point x="220" y="230"/>
      <point x="195" y="58"/>
      <point x="163" y="58" type="curve" smooth="yes"/>
      <point x="128" y="58"/>
      <point x="119" y="238"/>
      <point x="119" y="296" type="curve" smooth="yes"/>
      <point x="119" y="332"/>
      <point x="118" y="368"/>
      <point x="117" y="405" type="curve" smooth="yes"/>
      <point x="116" y="441"/>
      <point x="115" y="477"/>
      <point x="115" y="513" type="curve" smooth="yes"/>
      <point x="115" y="536" type="line"/>
      <point x="126" y="538"/>
      <point x="138" y="545"/>
      <point x="138" y="565" type="curve" smooth="yes"/>
      <point x="138" y="587"/>
      <point x="122" y="596"/>
      <point x="103" y="596" type="curve" smooth="yes"/>
      <point x="72" y="596"/>
      <point x="9" y="592"/>
      <point x="9" y="561" type="curve" smooth="yes"/>
      <point x="9" y="546"/>
      <point x="21" y="533"/>
      <point x="36" y="533" type="curve" smooth="yes"/>
      <point x="50" y="533" type="line"/>
      <point x="50" y="438"/>
      <point x="52" y="350"/>
      <point x="55" y="256" type="curve" smooth="yes"/>
      <point x="55" y="248"/>
      <point x="56" y="241"/>
      <point x="56" y="233" type="curve" smooth="yes"/>
      <point x="59" y="132"/>
      <point x="91" y="-1"/>
      <point x="160" y="-1" type="curve" smooth="yes"/>
      <point x="241" y="-1"/>
      <point x="259" y="138"/>
      <point x="264" y="179" type="curve" smooth="yes"/>
      <point x="279" y="298"/>
      <point x="288" y="428"/>
      <point x="289" y="552" type="curve"/>
      <point x="307" y="556"/>
      <point x="331" y="562"/>
      <point x="331" y="585" type="curve" smooth="yes"/>
    </contour>
  </outline>
  <lib>
    <dict>
      <key>com.schriftgestaltung.Glyphs.lastChange</key>
      <string>2019-03-20 22:33:18 +0000</string>
    </dict>
  </lib>
</glyph>
