<?xml version="1.0" encoding="UTF-8"?>
<glyph name="bracketright" format="1">
  <advance width="341"/>
  <unicode hex="005D"/>
  <outline>
    <contour>
      <point x="55" y="-172" type="curve"/>
      <point x="100" y="-167"/>
      <point x="141" y="-167"/>
      <point x="181" y="-167" type="curve" smooth="yes"/>
      <point x="211" y="-167"/>
      <point x="247" y="-162"/>
      <point x="282" y="-162" type="curve"/>
      <point x="297" y="-157"/>
      <point x="302" y="-157"/>
      <point x="302" y="-137" type="curve" smooth="yes"/>
      <point x="302" y="-117" type="line" smooth="yes"/>
      <point x="302" y="49"/>
      <point x="302" y="216"/>
      <point x="302" y="382" type="curve" smooth="yes"/>
      <point x="302" y="432" type="line"/>
      <point x="307" y="488"/>
      <point x="312" y="543"/>
      <point x="312" y="598" type="curve" smooth="yes"/>
      <point x="312" y="664"/>
      <point x="312" y="724"/>
      <point x="317" y="785" type="curve"/>
      <point x="317" y="800"/>
      <point x="312" y="805"/>
      <point x="297" y="805" type="curve" smooth="yes"/>
      <point x="277" y="805" type="line" smooth="yes"/>
      <point x="226" y="805"/>
      <point x="176" y="805"/>
      <point x="126" y="805" type="curve" smooth="yes"/>
      <point x="50" y="805" type="line" smooth="yes"/>
      <point x="35" y="805"/>
      <point x="15" y="790"/>
      <point x="15" y="770" type="curve" smooth="yes"/>
      <point x="15" y="755"/>
      <point x="15" y="739"/>
      <point x="20" y="719" type="curve"/>
      <point x="25" y="704"/>
      <point x="30" y="699"/>
      <point x="45" y="699" type="curve" smooth="yes"/>
      <point x="75" y="699"/>
      <point x="100" y="704"/>
      <point x="131" y="704" type="curve" smooth="yes"/>
      <point x="226" y="704" type="line"/>
      <point x="226" y="699"/>
      <point x="231" y="694"/>
      <point x="231" y="689" type="curve"/>
      <point x="226" y="619"/>
      <point x="226" y="553"/>
      <point x="221" y="488" type="curve"/>
      <point x="221" y="402"/>
      <point x="216" y="311"/>
      <point x="211" y="226" type="curve"/>
      <point x="211" y="-46" type="line" smooth="yes"/>
      <point x="211" y="-56"/>
      <point x="211" y="-61"/>
      <point x="211" y="-66" type="curve"/>
      <point x="206" y="-72"/>
      <point x="201" y="-72"/>
      <point x="201" y="-72" type="curve"/>
      <point x="146" y="-72"/>
      <point x="95" y="-77"/>
      <point x="45" y="-77" type="curve" smooth="yes"/>
      <point x="20" y="-77"/>
      <point x="20" y="-77"/>
      <point x="20" y="-102" type="curve" smooth="yes"/>
      <point x="20" y="-117"/>
      <point x="25" y="-132"/>
      <point x="25" y="-147" type="curve"/>
      <point x="30" y="-167"/>
      <point x="35" y="-172"/>
    </contour>
  </outline>
  <lib>
    <dict>
      <key>com.schriftgestaltung.Glyphs.lastChange</key>
      <string>2019-03-20 23:36:59 +0000</string>
    </dict>
  </lib>
</glyph>
