<?xml version="1.0" encoding="UTF-8"?>
<glyph name="nine" format="1">
  <advance width="450"/>
  <unicode hex="0039"/>
  <outline>
    <contour>
      <point x="296" y="-28" type="curve" smooth="yes"/>
      <point x="309" y="-28"/>
      <point x="351" y="-26"/>
      <point x="368" y="-23" type="curve" smooth="yes"/>
      <point x="388" y="-20"/>
      <point x="383" y="16"/>
      <point x="383" y="33" type="curve"/>
      <point x="381" y="65"/>
      <point x="378" y="96"/>
      <point x="378" y="127" type="curve" smooth="yes"/>
      <point x="378" y="185"/>
      <point x="387" y="161"/>
      <point x="390" y="219" type="curve" smooth="yes"/>
      <point x="395" y="329"/>
      <point x="404" y="439"/>
      <point x="411" y="549" type="curve" smooth="yes"/>
      <point x="415" y="627"/>
      <point x="426" y="707"/>
      <point x="426" y="785" type="curve" smooth="yes"/>
      <point x="426" y="839"/>
      <point x="349" y="853"/>
      <point x="285" y="853" type="curve" smooth="yes"/>
      <point x="275" y="853"/>
      <point x="265" y="852"/>
      <point x="258" y="851" type="curve"/>
      <point x="138" y="825"/>
      <point x="8" y="769"/>
      <point x="8" y="605" type="curve" smooth="yes"/>
      <point x="8" y="533"/>
      <point x="43" y="474"/>
      <point x="127" y="474" type="curve" smooth="yes"/>
      <point x="189" y="474"/>
      <point x="246" y="510"/>
      <point x="285" y="551" type="curve" smooth="yes"/>
      <point x="294" y="560"/>
      <point x="302" y="584"/>
      <point x="311" y="593" type="curve"/>
      <point x="317" y="586"/>
      <point x="316" y="568"/>
      <point x="316" y="556" type="curve" smooth="yes"/>
      <point x="316" y="550"/>
      <point x="316" y="545"/>
      <point x="315" y="539" type="curve"/>
      <point x="301" y="336"/>
      <point x="276" y="183"/>
      <point x="276" y="27" type="curve" smooth="yes"/>
      <point x="276" y="-11"/>
      <point x="279" y="-28"/>
    </contour>
    <contour>
      <point x="146" y="566" type="curve" smooth="yes"/>
      <point x="118" y="566"/>
      <point x="94" y="570"/>
      <point x="94" y="598" type="curve" smooth="yes"/>
      <point x="94" y="649"/>
      <point x="126" y="691"/>
      <point x="166" y="720" type="curve" smooth="yes"/>
      <point x="204" y="748"/>
      <point x="247" y="777"/>
      <point x="295" y="782" type="curve"/>
      <point x="302" y="782" type="line" smooth="yes"/>
      <point x="320" y="782"/>
      <point x="326" y="777"/>
      <point x="326" y="764" type="curve" smooth="yes"/>
      <point x="326" y="738"/>
      <point x="227" y="566"/>
    </contour>
  </outline>
  <lib>
    <dict>
      <key>com.schriftgestaltung.Glyphs.lastChange</key>
      <string>2019-03-20 23:36:59 +0000</string>
    </dict>
  </lib>
</glyph>
