<?xml version="1.0" encoding="UTF-8"?>
<glyph name="quoteright" format="1">
  <advance width="133"/>
  <unicode hex="2019"/>
  <outline>
    <contour>
      <point x="61" y="585" type="curve"/>
      <point x="74" y="584"/>
      <point x="78" y="589"/>
      <point x="81" y="601" type="curve" smooth="yes"/>
      <point x="94" y="648"/>
      <point x="101" y="694"/>
      <point x="109" y="739" type="curve" smooth="yes"/>
      <point x="112" y="756"/>
      <point x="119" y="777"/>
      <point x="119" y="795" type="curve" smooth="yes"/>
      <point x="119" y="809"/>
      <point x="92" y="805"/>
      <point x="76" y="805" type="curve" smooth="yes"/>
      <point x="70" y="805" type="line" smooth="yes"/>
      <point x="56" y="805"/>
      <point x="50" y="799"/>
      <point x="50" y="785" type="curve" smooth="yes"/>
      <point x="50" y="770" type="line" smooth="yes"/>
      <point x="50" y="768"/>
      <point x="50" y="766"/>
      <point x="50" y="764" type="curve"/>
      <point x="40" y="709"/>
      <point x="29" y="654"/>
      <point x="18" y="599" type="curve"/>
      <point x="18" y="596" type="line" smooth="yes"/>
      <point x="18" y="583"/>
      <point x="48" y="585"/>
    </contour>
  </outline>
  <lib>
    <dict>
      <key>com.schriftgestaltung.Glyphs.lastChange</key>
      <string>2019-03-20 23:36:59 +0000</string>
    </dict>
  </lib>
</glyph>
