<?xml version="1.0" encoding="UTF-8"?>
<glyph name="t" format="1">
  <advance width="403"/>
  <unicode hex="0074"/>
  <outline>
    <contour>
      <point x="166" y="-22" type="curve" smooth="yes"/>
      <point x="174" y="-21"/>
      <point x="182" y="-19"/>
      <point x="190" y="-18" type="curve"/>
      <point x="214" y="-16"/>
      <point x="215" y="-16"/>
      <point x="216" y="9" type="curve" smooth="yes"/>
      <point x="218" y="44"/>
      <point x="218" y="79"/>
      <point x="220" y="114" type="curve" smooth="yes"/>
      <point x="224" y="171"/>
      <point x="230" y="228"/>
      <point x="233" y="285" type="curve" smooth="yes"/>
      <point x="238" y="373"/>
      <point x="241" y="461"/>
      <point x="245" y="549" type="curve"/>
      <point x="245" y="553"/>
      <point x="246" y="557"/>
      <point x="247" y="563" type="curve"/>
      <point x="261" y="563"/>
      <point x="274" y="563"/>
      <point x="287" y="563" type="curve"/>
      <point x="344" y="566" type="line" smooth="yes"/>
      <point x="356" y="567"/>
      <point x="363" y="574"/>
      <point x="364" y="586" type="curve" smooth="yes"/>
      <point x="365" y="606"/>
      <point x="365" y="626"/>
      <point x="365" y="646" type="curve" smooth="yes"/>
      <point x="365" y="659"/>
      <point x="356" y="662"/>
      <point x="345" y="661" type="curve"/>
      <point x="343" y="661" type="line"/>
      <point x="332" y="660"/>
      <point x="321" y="658"/>
      <point x="310" y="657" type="curve" smooth="yes"/>
      <point x="252" y="653"/>
      <point x="194" y="649"/>
      <point x="136" y="646" type="curve" smooth="yes"/>
      <point x="105" y="644"/>
      <point x="74" y="642"/>
      <point x="44" y="650" type="curve"/>
      <point x="38" y="625"/>
      <point x="38" y="568"/>
      <point x="45" y="552" type="curve"/>
      <point x="173" y="567" type="line"/>
      <point x="171" y="543"/>
      <point x="169" y="525"/>
      <point x="168" y="506" type="curve" smooth="yes"/>
      <point x="162" y="384"/>
      <point x="156" y="262"/>
      <point x="150" y="140" type="curve" smooth="yes"/>
      <point x="144" y="-1" type="line" smooth="yes"/>
      <point x="143" y="-20"/>
      <point x="147" y="-24"/>
    </contour>
  </outline>
  <lib>
    <dict>
      <key>com.schriftgestaltung.Glyphs.lastChange</key>
      <string>2019-03-20 23:36:59 +0000</string>
    </dict>
  </lib>
</glyph>
